{
  "name": "Client",
  "base": "User",
  "idInjection": true,
  "options": {
    "validateUpsert": true
  },
  "properties": {
    "first_name": {
      "type": "string"
    },
    "last_name": {
      "type": "string"
    },
    "phone": {
      "type": "string"
    },
    "email": {
      "type": "string",
      "required": true
    },
    "address": {
      "type": "string"
    },
    "ref_link": {
      "type": "string"
    },
    "refered_by": {
      "type": "string"
    }
  },
  "validations": [],
  "relations": {},
  "acls": [],
  "methods": {}
}
